{
  "__type__": "cc.AnimationClip",
  "_name": "PlayerHook",
  "_objFlags": 0,
  "_native": "",
  "_duration": 1.1,
  "sample": 60,
  "speed": 1,
  "wrapMode": 1,
  "curveData": {
    "comps": {
      "cc.Sprite": {
        "spriteFrame": [
          {
            "frame": 0,
            "value": {
              "__uuid__": "ddc12da3-ad79-48d4-82bb-41f51c1bdd46"
            }
          },
          {
            "frame": 0.08333333333333333,
            "value": {
              "__uuid__": "c916ab6b-9391-40f1-9214-7152bc7d46b8"
            }
          },
          {
            "frame": 0.16666666666666666,
            "value": {
              "__uuid__": "a05d2255-0a8d-4d4c-8bb3-07b62917ca46"
            }
          },
          {
            "frame": 0.25,
            "value": {
              "__uuid__": "617ae7e4-f126-43ab-bf00-7c4d3240a0af"
            }
          },
          {
            "frame": 0.3333333333333333,
            "value": {
              "__uuid__": "98388c39-1f19-4c2c-af39-23872e3682b7"
            }
          },
          {
            "frame": 0.4166666666666667,
            "value": {
              "__uuid__": "29dd17a1-031c-4379-bc37-6990c92af27b"
            }
          },
          {
            "frame": 0.5,
            "value": {
              "__uuid__": "e75627c6-7acf-4550-bc36-c14b173f060a"
            }
          },
          {
            "frame": 0.5833333333333334,
            "value": {
              "__uuid__": "1e8e6945-f42c-4a3c-917d-932002605666"
            }
          },
          {
            "frame": 0.6666666666666666,
            "value": {
              "__uuid__": "90d42403-4eff-4500-ae9d-703da7027113"
            }
          },
          {
            "frame": 0.75,
            "value": {
              "__uuid__": "be91cb2f-5f19-4354-adb1-dc706c189e64"
            }
          },
          {
            "frame": 0.8333333333333334,
            "value": {
              "__uuid__": "423d133f-4fcf-4859-b6eb-aeb5ba82cbad"
            }
          },
          {
            "frame": 0.9166666666666666,
            "value": {
              "__uuid__": "e6116567-58fe-4353-bc07-9dfe72588b6a"
            }
          },
          {
            "frame": 1,
            "value": {
              "__uuid__": "74970a20-f603-4626-a67b-3fb05c04287b"
            }
          },
          {
            "frame": 1.0833333333333333,
            "value": {
              "__uuid__": "d26a4d78-1593-4fe0-a736-1be7cc75c68a"
            }
          }
        ]
      }
    }
  },
  "events": []
}