{
  "__type__": "cc.AnimationClip",
  "_name": "PlayerDead",
  "_objFlags": 0,
  "_native": "",
  "_duration": 1.1833333333333333,
  "sample": 60,
  "speed": 1,
  "wrapMode": 1,
  "curveData": {
    "comps": {
      "cc.Sprite": {
        "spriteFrame": [
          {
            "frame": 0,
            "value": {
              "__uuid__": "893ed04e-655c-46c8-87ba-b8e6368ff6fd"
            }
          },
          {
            "frame": 0.08333333333333333,
            "value": {
              "__uuid__": "b59121fe-6e09-489f-a4cf-22c8c3cfbe62"
            }
          },
          {
            "frame": 0.16666666666666666,
            "value": {
              "__uuid__": "d2880b16-81d4-4157-a954-9065814f8098"
            }
          },
          {
            "frame": 0.25,
            "value": {
              "__uuid__": "355c8441-b622-4c8e-8eb3-f78da964cfd3"
            }
          },
          {
            "frame": 0.3333333333333333,
            "value": {
              "__uuid__": "18563a27-54bc-4037-a6ef-92635815e628"
            }
          },
          {
            "frame": 0.4166666666666667,
            "value": {
              "__uuid__": "d4129ba1-3dbd-4ae9-a92e-7bec4f5dce26"
            }
          },
          {
            "frame": 0.5,
            "value": {
              "__uuid__": "fbf8f3b3-b20e-4bdb-837b-44661f97deaf"
            }
          },
          {
            "frame": 0.5833333333333334,
            "value": {
              "__uuid__": "7ecc6a33-1c81-4aa6-bedb-35cb3b561e52"
            }
          },
          {
            "frame": 0.6666666666666666,
            "value": {
              "__uuid__": "e6a77b99-b37e-44fd-95a5-f3212dff2930"
            }
          },
          {
            "frame": 0.75,
            "value": {
              "__uuid__": "a86e86bd-066b-4637-a98f-3e534461f7bf"
            }
          },
          {
            "frame": 0.8333333333333334,
            "value": {
              "__uuid__": "5c2d1d03-f8fc-49e1-9672-ce9cb5e7ed49"
            }
          },
          {
            "frame": 0.9166666666666666,
            "value": {
              "__uuid__": "c6572de5-0fb1-4af9-8296-a0756caac6e2"
            }
          },
          {
            "frame": 1,
            "value": {
              "__uuid__": "0563b748-56b8-4cce-9056-349ec7672acd"
            }
          },
          {
            "frame": 1.0833333333333333,
            "value": {
              "__uuid__": "ccd84ce6-8995-487e-a2a6-12131ed542a5"
            }
          },
          {
            "frame": 1.1666666666666667,
            "value": {
              "__uuid__": "893ed04e-655c-46c8-87ba-b8e6368ff6fd"
            }
          }
        ]
      }
    }
  },
  "events": [
    {
      "frame": 1.1666666666666667,
      "func": "Dead",
      "params": []
    }
  ]
}