{
  "__type__": "cc.AnimationClip",
  "_name": "PlayerSprint",
  "_objFlags": 0,
  "_native": "",
  "_duration": 0.9333333333333333,
  "sample": 60,
  "speed": 1,
  "wrapMode": 2,
  "curveData": {
    "comps": {
      "cc.Sprite": {
        "spriteFrame": [
          {
            "frame": 0,
            "value": {
              "__uuid__": "47e22516-c214-467a-b942-f4ee0de07d96"
            }
          },
          {
            "frame": 0.08333333333333333,
            "value": {
              "__uuid__": "ba3e41c6-a0b3-4e30-8c3d-c7bc1610989e"
            }
          },
          {
            "frame": 0.16666666666666666,
            "value": {
              "__uuid__": "37bbb8e8-6f6b-448b-8364-d056fb60e762"
            }
          },
          {
            "frame": 0.25,
            "value": {
              "__uuid__": "c424c636-60cb-4b3e-9515-f877e295d46f"
            }
          },
          {
            "frame": 0.3333333333333333,
            "value": {
              "__uuid__": "6a638b9c-1fcb-4259-a4e3-ab9480ec676f"
            }
          },
          {
            "frame": 0.4166666666666667,
            "value": {
              "__uuid__": "48626c57-176d-4dea-8a77-00f9e587844c"
            }
          },
          {
            "frame": 0.5,
            "value": {
              "__uuid__": "db3d7bd3-f48b-4b8c-8b63-d24b230536d3"
            }
          },
          {
            "frame": 0.5833333333333334,
            "value": {
              "__uuid__": "78ee45c9-4edf-4d43-a1f6-d5c6d9f21836"
            }
          },
          {
            "frame": 0.6666666666666666,
            "value": {
              "__uuid__": "73062a8b-82e3-4811-9400-e411de8170f4"
            }
          },
          {
            "frame": 0.75,
            "value": {
              "__uuid__": "6d6cd7d2-46f3-4f3b-896e-8889c7b044ae"
            }
          },
          {
            "frame": 0.8333333333333334,
            "value": {
              "__uuid__": "0ac56a06-1175-4f2c-85f1-23219ecd7227"
            }
          },
          {
            "frame": 0.9166666666666666,
            "value": {
              "__uuid__": "5408ef5c-a1b3-4fec-9c9f-a4ed09d0ef20"
            }
          }
        ]
      }
    }
  },
  "events": []
}