{
  "__type__": "cc.AnimationClip",
  "_name": "big_player_walk",
  "_objFlags": 0,
  "_native": "",
  "_duration": 0.9333333333333333,
  "sample": 60,
  "speed": 1,
  "wrapMode": 2,
  "curveData": {
    "comps": {
      "cc.Sprite": {
        "spriteFrame": [
          {
            "frame": 0,
            "value": {
              "__uuid__": "ef8eaa5c-dc4a-4b0d-ba1a-1a3c1f1d4c2e"
            }
          },
          {
            "frame": 0.08333333333333333,
            "value": {
              "__uuid__": "cceb2711-870b-42da-b458-7234448d500d"
            }
          },
          {
            "frame": 0.16666666666666666,
            "value": {
              "__uuid__": "b4ea4aa4-0d5d-401a-8937-1f7c27cee7a2"
            }
          },
          {
            "frame": 0.25,
            "value": {
              "__uuid__": "4275f578-b8b2-4b5d-a735-80445921b41a"
            }
          },
          {
            "frame": 0.3333333333333333,
            "value": {
              "__uuid__": "b1247fd3-c0c5-4247-bb91-0713f9650983"
            }
          },
          {
            "frame": 0.4166666666666667,
            "value": {
              "__uuid__": "7c24a244-f8d1-4852-9459-d5d2986d0717"
            }
          },
          {
            "frame": 0.5,
            "value": {
              "__uuid__": "3599ea81-6cb3-4c40-a46d-e6fdd23c3965"
            }
          },
          {
            "frame": 0.5833333333333334,
            "value": {
              "__uuid__": "100a3ca8-7eca-4ba4-b4ff-df0519672c78"
            }
          },
          {
            "frame": 0.6666666666666666,
            "value": {
              "__uuid__": "0564724e-1979-4204-8181-896ddbe94bfd"
            }
          },
          {
            "frame": 0.75,
            "value": {
              "__uuid__": "6b33b1ee-d6ba-444a-a73c-cf9f7fcd9185"
            }
          },
          {
            "frame": 0.8333333333333334,
            "value": {
              "__uuid__": "c8521788-27da-4a9a-83b0-d04bf39f98bc"
            }
          },
          {
            "frame": 0.9166666666666666,
            "value": {
              "__uuid__": "c1d0271a-175f-47c0-a9c7-e36f868b7d4b"
            }
          }
        ]
      }
    }
  },
  "events": [
    {
      "frame": 0.08333333333333333,
      "func": "",
      "params": []
    }
  ]
}