{
  "__type__": "cc.AnimationClip",
  "_name": "PlayerJump",
  "_objFlags": 0,
  "_native": "",
  "_duration": 0.03333333333333333,
  "sample": 30,
  "speed": 1,
  "wrapMode": 1,
  "curveData": {
    "comps": {
      "cc.Sprite": {
        "spriteFrame": [
          {
            "frame": 0,
            "value": {
              "__uuid__": "eb5ff137-130b-489f-94ed-20fc0bcc9dda"
            }
          }
        ]
      }
    }
  },
  "events": []
}